
PB0:2001,4;2002,7;2003,11;2004,12;2005,8;2006,11;2007,7;2008,7;2009,10;2010,4;2011,14;2012,19;
PB1:*itens sem ano,1;2001,1;2003,1;2004,2;2007,4;2008,1;2009,1;2010,3;2012,2;
PB2:2003,1;2005,1;2006,1;2007,3;2008,4;2009,1;2010,3;2011,1;2012,1;
PB3:*itens sem ano,4;2007,1;2010,1;
PB4:2001,19;2002,13;2003,13;2004,9;2005,23;2006,14;2007,12;2008,14;2009,22;2010,28;2011,19;2012,17;
PB5:2002,1;2004,3;2005,1;2007,2;2008,4;2009,4;2010,7;2011,2;2012,7;
PB6:2001,2;2002,6;2003,18;2004,3;2005,4;2006,7;2007,5;2008,7;2009,5;2010,5;2011,5;2012,10;
PB8:2004,1;2005,2;2007,3;2008,2;2009,1;2010,2;2012,2;
PB9:2004,2;2006,1;2009,2;2011,1;
PT2:2001,1;2002,1;2003,3;2010,1;
PT3:2002,1;2003,1;2010,1;
PT4:2001,2;2003,2;2004,1;2006,1;2007,1;2010,1;2012,1;
PT5:2003,1;2004,1;2006,1;2007,3;2008,1;2009,1;2010,1;2011,1;2012,1;
PR0:2001,2;2003,1;2010,1;
PR1:2009,1;
PR2:2002,1;2003,2;
OA0:2008,1;2010,1;
OA1:2007,1;2008,2;2009,6;2010,5;2011,6;2012,7;
OA2:2008,1;2009,1;2010,6;2011,6;2012,8;
OC0:2007,1;2008,1;2011,3;
OC1:2001,1;2002,1;2005,1;2006,2;2007,1;2008,5;2009,4;2010,3;2011,4;2012,7;
OC2:2001,4;2002,5;2003,4;2004,9;2005,6;2006,12;2007,7;2008,4;2009,3;2010,5;2011,6;2012,10;
OC4:2002,2;2003,2;2004,7;2005,2;2006,3;2007,3;2008,3;2009,9;2010,3;2011,6;2012,6;
OC5:2001,3;2002,7;2003,6;2004,1;2005,1;2007,2;2008,4;2009,5;2010,3;2011,2;
Pm:2001,2;2002,4;2003,3;2004,6;2005,2;2006,2;2007,7;2008,5;2009,3;2010,3;2011,3;2012,2;
Pj:1999,1;2000,5;2001,5;2002,4;2003,3;2004,8;2005,5;2006,5;2007,7;2008,3;2010,2;2011,7;2012,7;
PB:*itens sem ano,5;2001,26;2002,27;2003,44;2004,32;2005,39;2006,34;2007,37;2008,39;2009,46;2010,53;2011,42;2012,58;
PT:2001,3;2002,2;2003,7;2004,2;2006,2;2007,4;2008,1;2009,1;2010,4;2011,1;2012,2;
OA:2007,1;2008,4;2009,7;2010,12;2011,12;2012,15;
OC:2001,8;2002,15;2003,12;2004,17;2005,10;2006,17;2007,14;2008,17;2009,21;2010,14;2011,21;2012,23;
Ep:2001,6;2002,19;2003,22;2004,12;2005,16;2006,14;2007,13;2008,7;2009,12;2010,10;2011,9;2012,9;
Eo:2001,2;2002,2;2003,2;2004,2;2005,3;2006,3;2007,6;2008,1;2010,7;2012,2;